ru\whitewhale\cache\client\SubscriberHttpClientImpl.class
ru\whitewhale\cache\client\SubscriberHttpClient.class
ru\whitewhale\cache\configuration\AppConfiguration.class
ru\whitewhale\cache\repository\SubInfoRepository.class
ru\whitewhale\cache\client\SubscriberHttpClientImpl$1.class
ru\whitewhale\cache\configuration\SpringWebContainerInitializer.class
ru\whitewhale\cache\domain\TariffPlan.class
ru\whitewhale\cache\service\SubscribeServiceImpl.class
ru\whitewhale\cache\domain\SubInfo.class
ru\whitewhale\cache\domain\Subscriber.class
ru\whitewhale\cache\service\SubscriberService.class
