D:\test\part2\src\main\java\ru\whitewhale\cache\service\SubscriberService.java
D:\test\part2\src\main\java\ru\whitewhale\cache\domain\SubInfo.java
D:\test\part2\src\main\java\ru\whitewhale\cache\domain\TariffPlan.java
D:\test\part2\src\main\java\ru\whitewhale\cache\repository\SubInfoRepository.java
D:\test\part2\src\main\java\ru\whitewhale\cache\configuration\SpringWebContainerInitializer.java
D:\test\part2\src\main\java\ru\whitewhale\cache\configuration\AppConfiguration.java
D:\test\part2\src\main\java\ru\whitewhale\cache\service\SubscribeServiceImpl.java
D:\test\part2\src\main\java\ru\whitewhale\cache\client\SubscriberHttpClient.java
D:\test\part2\src\main\java\ru\whitewhale\cache\domain\Subscriber.java
D:\test\part2\src\main\java\ru\whitewhale\cache\client\SubscriberHttpClientImpl.java
